…
Average sleep is recorded as 6.9 hours, meeting the recommended 7-9
hours for optimal well-being and health benefits.

    #Check for number of data collected for each Id

    daily_activity%>% 
      group_by(Id)%>%
      count(Id)

    ## # A tibble: 33 × 2
    ## # Groups:   Id [33]
    ##            Id     n
    ##         <dbl> <int>
    ##  1 1503960366    31
    ##  2 1624580081    31
    ##  3 1644430081    30
    ##  4 1844505072    31
    ##  5 1927972279    31
    ##  6 2022484408    31
    ##  7 2026352035    31
    ##  8 2320127002    31
    ##  9 2347167796    18
    ## 10 2873212765    31
    ## # ℹ 23 more rows

    sleep_day%>% 
      group_by(Id)%>%
      count(Id)

    ## # A tibble: 24 × 2
    ## # Groups:   Id [24]
    ##            Id     n
    ##         <dbl> <int>
    ##  1 1503960366    25
    ##  2 1644430081     4
    ##  3 1844505072     3
    ##  4 1927972279     5
    ##  5 2026352035    28
    ##  6 2320127002     1
    ##  7 2347167796    15
    ##  8 3977333714    28
    ##  9 4020332650     8
    ## 10 4319703577    26
    ## # ℹ 14 more rows
…
